{
    "KPlugin": {
        "Description": "Configure general file manager settings",
        "Description[ar]": "اضبط إعدادات مدير الملفّات العامّة",
        "Description[az]": "Əsas fayl meneceri ayarlarını tənzimləyin",
        "Description[bg]": "Конфигуриране на общите настройки на файловия мениджър",
        "Description[ca@valencia]": "Configura les opcions generals del gestor de fitxers",
        "Description[ca]": "Configura les opcions generals del gestor de fitxers",
        "Description[cs]": "Obecné nastavení správce souborů",
        "Description[da]": "Konfiguration af generelle indstillinger for filhåndtering",
        "Description[de]": "Allgemeine Einstellungen an der Dateiverwaltung vornehmen",
        "Description[en_GB]": "Configure general file manager settings",
        "Description[es]": "Configurar las preferencias generales del gestor de archivos",
        "Description[eu]": "Konfiguratu fitxategi-kudeatzailearen ezarpen orokorrak",
        "Description[fi]": "Tiedostonhallinnan yleisasetukset",
        "Description[fr]": "Configurer les paramètres généraux pour le gestionnaire de fichiers",
        "Description[ia]": "Configura preferentias del gerente general de file",
        "Description[id]": "Konfigurasikan pengaturan pengelola file umum",
        "Description[ie]": "Configurar li parametres del gerente de files",
        "Description[is]": "Sýsla með almennar stillingar skráastjóra",
        "Description[it]": "Configura le impostazioni generali del gestore dei file",
        "Description[ka]": "ფაილების მმართველის ზოგადი მორგება",
        "Description[ko]": "일반 파일 관리자 설정",
        "Description[lt]": "Konfigūruoti bendras failų tvarkytuvės nuostatas",
        "Description[nl]": "Algemene bestandsbeheerderinstellingen configureren",
        "Description[nn]": "Set opp generelle innstillingar for filhandsamaren",
        "Description[pl]": "Ustawienia ogólne zarządzania plikami",
        "Description[pt]": "Configurar as definições gerais do gestor de ficheiros",
        "Description[pt_BR]": "Configura as opções gerais do gerenciador de arquivos",
        "Description[ro]": "Configurează opțiuni generale ale gestionarului de fișiere",
        "Description[ru]": "Настройка основных параметров диспетчера файлов",
        "Description[sk]": "Všeobecné nastavenie správcu súborov",
        "Description[sl]": "Postavi splošne nastavitve upravljalnika datotek",
        "Description[sv]": "Anpassa filhanterarens allmänna inställningar",
        "Description[ta]": "பொதுவான கோப்பு மேலாளி அமைப்புகளை அமையுங்கள்",
        "Description[tr]": "Genel dosya yöneticisi ayarlarını yapılandır",
        "Description[uk]": "Налаштувати загальні параметри менеджера файлів",
        "Description[vi]": "Cấu hình các thiết lập chung cho trình quản lí tệp",
        "Description[x-test]": "xxConfigure general file manager settingsxx",
        "Description[zh_CN]": "配置文件管理器常规设置",
        "Icon": "system-file-manager",
        "Name": "General",
        "Name[ar]": "عامّ",
        "Name[az]": "Əsas",
        "Name[bg]": "Общи",
        "Name[ca@valencia]": "General",
        "Name[ca]": "General",
        "Name[cs]": "Obecné",
        "Name[da]": "Generelt",
        "Name[de]": "Allgemein",
        "Name[en_GB]": "General",
        "Name[es]": "General",
        "Name[eu]": "Orokorra",
        "Name[fi]": "Perusasetukset",
        "Name[fr]": "Général",
        "Name[ia]": "General",
        "Name[id]": "Umum",
        "Name[ie]": "General",
        "Name[is]": "Almennt",
        "Name[it]": "Generale",
        "Name[ka]": "მთავარი",
        "Name[ko]": "일반",
        "Name[lt]": "Bendrosios",
        "Name[nl]": "Algemeen",
        "Name[nn]": "Generelt",
        "Name[pl]": "Ogólne",
        "Name[pt]": "Geral",
        "Name[pt_BR]": "Geral",
        "Name[ro]": "Generale",
        "Name[ru]": "Основные параметры",
        "Name[sk]": "Všeobecné",
        "Name[sl]": "Splošno",
        "Name[sv]": "Allmänt",
        "Name[ta]": "பொதுவானவை",
        "Name[tr]": "Genel",
        "Name[uk]": "Загальне",
        "Name[vi]": "Chung",
        "Name[x-test]": "xxGeneralxx",
        "Name[zh_CN]": "常规",
        "ServiceTypes": [
            "KCModule"
        ]
    },
    "X-DocPath": "dolphin/configuring-dolphin.html#preferences-dialog",
    "X-KDE-Keywords": "file manager",
    "X-KDE-Keywords[ar]": "مدير ملفّات ملفات الملفّات الملفات",
    "X-KDE-Keywords[ast]": "xestor de ficheros",
    "X-KDE-Keywords[az]": "fayl meneceri",
    "X-KDE-Keywords[ca@valencia]": "gestor de fitxers",
    "X-KDE-Keywords[ca]": "gestor de fitxers",
    "X-KDE-Keywords[cs]": "správce souborů",
    "X-KDE-Keywords[da]": "filhåndtering",
    "X-KDE-Keywords[de]": "Dateiverwaltung",
    "X-KDE-Keywords[el]": "διαχειριστής αρχείων",
    "X-KDE-Keywords[en_GB]": "file manager",
    "X-KDE-Keywords[es]": "gestor de archivos",
    "X-KDE-Keywords[et]": "failihaldur",
    "X-KDE-Keywords[eu]": "Fitxategi-kudeatzailea",
    "X-KDE-Keywords[fi]": "tiedostonhallinta",
    "X-KDE-Keywords[fr]": "gestionnaire de fichiers",
    "X-KDE-Keywords[gl]": "xestor de ficheiros",
    "X-KDE-Keywords[he]": "מנהל קבצים",
    "X-KDE-Keywords[hi]": "फ़ाइल प्रबंधक",
    "X-KDE-Keywords[hu]": "fájlkezelő",
    "X-KDE-Keywords[ia]": "gerente de file",
    "X-KDE-Keywords[id]": "pengelola file",
    "X-KDE-Keywords[is]": "skráastjóri",
    "X-KDE-Keywords[it]": "gestore dei file",
    "X-KDE-Keywords[ja]": "ファイルマネージャ",
    "X-KDE-Keywords[ko]": "파일 관리자",
    "X-KDE-Keywords[lt]": "failų tvarkytuvė",
    "X-KDE-Keywords[lv]": "datņu pārvaldnieks",
    "X-KDE-Keywords[ml]": "ഫയൽ മാനേജർ",
    "X-KDE-Keywords[my]": "ဖိုင်လ်မန်နေဂျာ",
    "X-KDE-Keywords[nb]": "filbehandler",
    "X-KDE-Keywords[nl]": "bestandsbeheerder",
    "X-KDE-Keywords[nn]": "filhandsamar",
    "X-KDE-Keywords[pa]": "ਫਾਇਲ ਮੈਨੇਜਰ",
    "X-KDE-Keywords[pl]": "zarządzanie plikami",
    "X-KDE-Keywords[pt]": "gestor de ficheiros",
    "X-KDE-Keywords[pt_BR]": "gerenciador de arquivos",
    "X-KDE-Keywords[ro]": "gestionar de fișiere",
    "X-KDE-Keywords[ru]": "диспетчер файлов",
    "X-KDE-Keywords[sk]": "správca súborov",
    "X-KDE-Keywords[sl]": "upravljalnik datotek",
    "X-KDE-Keywords[sr@ijekavian]": "file manager,менаџер фајлова",
    "X-KDE-Keywords[sr@ijekavianlatin]": "file manager,menadžer fajlova",
    "X-KDE-Keywords[sr@latin]": "file manager,menadžer fajlova",
    "X-KDE-Keywords[sr]": "file manager,менаџер фајлова",
    "X-KDE-Keywords[sv]": "filhanterare",
    "X-KDE-Keywords[ta]": "file manager,கோப்பு மேலாளர், கோப்பு நிர்வாகி, கோப்பு உலாவி",
    "X-KDE-Keywords[tr]": "dosya yöneticisi",
    "X-KDE-Keywords[uk]": "менеджер,керування,файл,файли",
    "X-KDE-Keywords[vi]": "file manager,trình quản lí tệp",
    "X-KDE-Keywords[x-test]": "xxfile managerxx",
    "X-KDE-Keywords[zh_CN]": "文件管理器",
    "X-KDE-Keywords[zh_TW]": "檔案管理員"
}
